{
    "query": "select state.demographic_precinct, precinct.name, precinct.geojson from precinct, state where precinct.state_code = state.state_code",
    "database": "bulls",
    "output_geojson": "bulls_geojson.txt"
}