{
    "query": "select `State_STATE_NAME`, `PRECINCT_ID`, `BOUNDARY_DATA` from `State_Precincts_Map`, `Precinct` where `State_Precincts_Map`.`precincts_PRECINCT_ID` = Precinct.`PRECINCT_ID`",
    "database": "knicks",
    "output_geojson": "knicks_geojson.txt"
}